{
    "apps": [
      {
        "name": "smblog",
        "script": "app.js",
        "env": {
          "COMMON_VARIABLE": "true"
        },
        "env_production": {
          "NODE_ENV": "production"
        }
      }
    ],
    "deploy": {
      "production": {
        "user": "manager1",
        "host": ["139.199.18.191"],
        "port": "22",
        "ref": "origin/master",
        "repo": "git@gitlab.com:heliujie/new-stye-blog.git",
        "path": "/www/smblog/production",
        "ssh_options": "StrictHostKeyChecking=no",
        "post-deploy": "npm install --registry=https://registry.npm.taobao.org && pm2 startOrRestart ecosystem.json --env production",
        "env": {
          "NODE_ENV": "production"
        }
      }
    }
  }
  