{
	"name": "Canvas的基本用法",
	"contentlist": [
		{
			"type": "title",
			"title": "标题1",
			"tagName": "h2",
			"id": "h2-a"
		},
		{
			"language": "html",
			"type": "code",
			"code": "<canvas id='tutorial' width='150' height='150'></canvas>"
		},
		{
			"type": "text",
			"content": "<canvas> 看起来和 <img> 元素很相像，唯一的不同就是它并没有 src 和 alt 属性。实际上，<canvas> 标签只有两个属性—— width和height。这些都是可选的，并且同样利用 DOM properties 来设置。当没有设置宽度和高度的时候，canvas会初始化宽度为300像素和高度为150像素。该元素可以使用CSS来定义大小，但在绘制时图像会伸缩以适应它的框架尺寸：如果CSS的尺寸与初始画布的比例不一致，它会出现扭曲。"
		},
		{
			"type": "text",
			"content": "id属性并不是<canvas>元素所特有的而是每一个HTML元素（比如class元素）都默认具有的属性。给每个标签都加上一个id属性是个好主意，因为这样你就能在我们的脚本中很容易的找到它"
		},
		{
			"language": "html",
			"type": "code",
			"code": "%3Ccanvas%20id%3D%22stockGraph%22%20width%3D%22150%22%20height%3D%22150%22%3E%0A%20%20current%20stock%20price%3A%20%243.15%20+0.15%0A%3C/canvas%3E%0A%0A%3Ccanvas%20id%3D%22clock%22%20width%3D%22150%22%20height%3D%22150%22%3E%0A%20%20%3Cimg%20src%3D%22images/clock.png%22%20width%3D%22150%22%20height%3D%22150%22%20alt%3D%22%22/%3E%0A%3C/canvas%3E"
		},
		{
			"type": "title",
			"title": "标题2",
			"tagName": "h2",
			"id": "h2-b"
		},
		{
			"type": "text",
			"content": ""
		},
		{
			"type": "text",
			"content": "id属性并不是<canvas>元素所特有的而是每一个HTML元素（比如class元素）都默认具有的属性。给每个标签都加上一个id属性是个好主意，因为这样你就能在我们的脚本中很容易的找到它"
		},
		{
			"type": "text",
			"content": "id属性并不是<canvas>元素所特有的而是每一个HTML元素（比如class元素）都默认具有的属性。给每个标签都加上一个id属性是个好主意，因为这样你就能在我们的脚本中很容易的找到它"
		},
		{
			"type": "text",
			"content": "id属性并不是<canvas>元素所特有的而是每一个HTML元素（比如class元素）都默认具有的属性。给每个标签都加上一个id属性是个好主意，因为这样你就能在我们的脚本中很容易的找到它"
		},
		{
			"type": "text",
			"content": "id属性并不是<canvas>元素所特有的而是每一个HTML元素（比如class元素）都默认具有的属性。给每个标签都加上一个id属性是个好主意，因为这样你就能在我们的脚本中很容易的找到它"
		},
		{
			"type": "title",
			"title": "标题3",
			"tagName": "h2",
			"id": "h2-c"
		},
		{
			"type": "image",
			"scale": 1,
			"src": ""
		}
	]
}